 / 

┌────────┬──────────────┬───────────────────────────┐
│Version │ Release Date │ Release Type              │
├────────┼──────────────┼───────────────────────────┤
│        │              │                           │
├────────┼──────────────┼───────────────────────────┤
│        │              │                           │
├────────┼──────────────┼───────────────────────────┤
│        │              │                           │
├────────┼──────────────┼───────────────────────────┤
│        │              │                           │
└────────┴──────────────┴───────────────────────────┘

Version xx 30/11/2017 ECR N°
- Modified 
	Description
- Modified files:
	nomefile
	
